…
``` r
 dmh %>%
  filter(month == 7,
         year == 2019) %>%
  group_by(`date`) %>%
  summarise(min_temp = min(avg_hourly_temperature_dmh),
            max_temp = max(avg_hourly_temperature_dmh),
            mean_temp = mean(avg_hourly_temperature_dmh),
            min_heat_index = min(avg_hourly_heat_index_dmh),
            max_heat_index = max(avg_hourly_heat_index_dmh),
            mean_heat_index = mean(avg_hourly_heat_index_dmh) 
  )
```

    ## # A tibble: 31 x 7
    ##    date       min_temp max_temp mean_temp min_heat_index max_heat_index
    ##    <date>        <dbl>    <dbl>     <dbl>          <dbl>          <dbl>
    ##  1 2019-07-01     70       87.1      77.8             69             86
    ##  2 2019-07-02     71.1     95        81.8             71            101
    ##  3 2019-07-03     75       91.9      82.7             76             97
    ##  4 2019-07-04     79       91.9      81.9             82            102
    ##  5 2019-07-05     77       91        83.3             78            104
    ##  6 2019-07-06     75.9     93.9      84.9             77            106
    ##  7 2019-07-07     75       87.1      79.8             76             95
    ##  8 2019-07-08     73       80.1      75.2             74             82
    ##  9 2019-07-09     69.1     87.1      78.9             70             91
    ## 10 2019-07-10     72       89.1      81.2             73             93
    ## # … with 21 more rows, and 1 more variable: mean_heat_index <dbl>
…
``` r
 dmh %>%
 filter(month == 7,
         year == 2019) %>%
  group_by(`date`) %>%
  summarise(min_temp = min(avg_hourly_temperature_dmh),
            max_temp = max(avg_hourly_temperature_dmh),
            mean_temp = mean(avg_hourly_temperature_dmh),
            min_heat_index = min(avg_hourly_heat_index_dmh),
            max_heat_index = max(avg_hourly_heat_index_dmh),
            mean_heat_index = mean(avg_hourly_heat_index_dmh) 
  )
```

    ## # A tibble: 31 x 7
    ##    date       min_temp max_temp mean_temp min_heat_index max_heat_index
    ##    <date>        <dbl>    <dbl>     <dbl>          <dbl>          <dbl>
    ##  1 2019-07-01     70       87.1      77.8             69             86
    ##  2 2019-07-02     71.1     95        81.8             71            101
    ##  3 2019-07-03     75       91.9      82.7             76             97
    ##  4 2019-07-04     79       91.9      81.9             82            102
    ##  5 2019-07-05     77       91        83.3             78            104
    ##  6 2019-07-06     75.9     93.9      84.9             77            106
    ##  7 2019-07-07     75       87.1      79.8             76             95
    ##  8 2019-07-08     73       80.1      75.2             74             82
    ##  9 2019-07-09     69.1     87.1      78.9             70             91
    ## 10 2019-07-10     72       89.1      81.2             73             93
    ## # … with 21 more rows, and 1 more variable: mean_heat_index <dbl>

``` r
dmh %>%
 filter(month == 7,
         year == 2019,
         day == 20)
```

    ## # A tibble: 24 x 9
    ##    date        year month   day  hour avg_hourly_temp… avg_hourly_dewp…
    ##    <date>     <dbl> <dbl> <dbl> <dbl>            <dbl>            <dbl>
    ##  1 2019-07-20  2019     7    20     0             87.1             72  
    ##  2 2019-07-20  2019     7    20     1             87.1             72  
    ##  3 2019-07-20  2019     7    20     2             86               71.1
    ##  4 2019-07-20  2019     7    20     3             84.9             71.1
    ##  5 2019-07-20  2019     7    20     4             84               71.1
    ##  6 2019-07-20  2019     7    20     5             82.9             71.1
    ##  7 2019-07-20  2019     7    20     6             84               72  
    ##  8 2019-07-20  2019     7    20     7             86               72  
    ##  9 2019-07-20  2019     7    20     8             89.1             73  
    ## 10 2019-07-20  2019     7    20     9             93               73.9
    ## # … with 14 more rows, and 2 more variables:
    ## #   avg_hourly_relative_humidity_dmh <dbl>,
    ## #   avg_hourly_heat_index_dmh <dbl>
…
#### Supporting Code

``` r
nsa_tree_temp %>%
  select(nsa_name, temp_mean_aft) %>%
  arrange(desc(temp_mean_aft))
```

    ## # A tibble: 278 x 2
    ##    nsa_name              temp_mean_aft
    ##    <chr>                         <dbl>
    ##  1 mcelderry park                 99.4
    ##  2 milton-montford                99.3
    ##  3 patterson place                98.6
    ##  4 dunbar-broadway                98.3
    ##  5 ellwood park/monument          98.3
    ##  6 penn-fallsway                  98.3
    ##  7 pleasant view gardens          98.3
    ##  8 madison-eastend                97.9
    ##  9 old goucher                    97.9
    ## 10 biddle street                  97.9
    ## # … with 268 more rows
…
    ## # A tibble: 1 x 2
    ##   variable                                                  temp_median_aft
    ##   <chr>                                                               <dbl>
    ## 1 percent_of_family_households_living_below_the_poverty_li…           0.378

``` r
csa_tree_temp_demographics %>%
  select(csa2010,temp_median_aft,percent_of_family_households_living_below_the_poverty_line) %>%
  arrange(desc(temp_median_aft))
```

    ## # A tibble: 55 x 3
    ##    csa2010             temp_median_aft percent_of_family_households_living…
    ##    <chr>                         <dbl>                                <dbl>
    ##  1 madison/east end               98.4                                33.7 
    ##  2 oldtown/middle east            97.5                                40.1 
    ##  3 patterson park nor…            97.2                                21.7 
    ##  4 midtown                        97.1                                 5.42
    ##  5 greenmount east                97.0                                24.2 
    ##  6 clifton-berea                  96.9                                27.6 
    ##  7 greater charles vi…            96.8                                19.0 
    ##  8 midway/coldstream              96.4                                22.6 
    ##  9 highlandtown                   96.3                                 6.65
    ## 10 upton/druid heights            95.9                                43.0 
    ## # … with 45 more rows
…
    ## # A tibble: 1 x 2
    ##   variable                                                  temp_median_aft
    ##   <chr>                                                               <dbl>
    ## 1 percent_of_population_that_uses_public_transportation_to…           0.410

``` r
csa_tree_temp_demographics %>%
  select(csa2010,temp_median_aft,percent_of_population_that_uses_public_transportation_to_get_to_work) %>%
  arrange(desc(temp_median_aft))
```

    ## # A tibble: 55 x 3
    ##    csa2010            temp_median_aft percent_of_population_that_uses_publ…
    ##    <chr>                        <dbl>                                 <dbl>
    ##  1 madison/east end              98.4                                 34.2 
    ##  2 oldtown/middle ea…            97.5                                 27.0 
    ##  3 patterson park no…            97.2                                 12.2 
    ##  4 midtown                       97.1                                 27.0 
    ##  5 greenmount east               97.0                                 42.5 
    ##  6 clifton-berea                 96.9                                 34.0 
    ##  7 greater charles v…            96.8                                 22.5 
    ##  8 midway/coldstream             96.4                                 32.6 
    ##  9 highlandtown                  96.3                                  7.19
    ## 10 upton/druid heigh…            95.9                                 31.6 
    ## # … with 45 more rows
…
    ## # A tibble: 1 x 2
    ##   variable                                                   `15_lid_mean`
    ##   <chr>                                                              <dbl>
    ## 1 percent_of_family_households_living_below_the_poverty_line        -0.340

``` r
csa_tree_temp_demographics %>%
  select(csa2010,`15_lid_mean`,percent_of_family_households_living_below_the_poverty_line) %>%
  arrange(desc(`15_lid_mean`))
```

    ## # A tibble: 55 x 3
    ##    csa2010              `15_lid_mean` percent_of_family_households_living_…
    ##    <chr>                        <dbl>                                 <dbl>
    ##  1 dickeyville/frankli…         0.732                                 17.4 
    ##  2 mount washington/co…         0.670                                  2.00
    ##  3 greater roland park…         0.603                                  2.15
    ##  4 edmondson village            0.551                                  8.89
    ##  5 forest park/walbrook         0.536                                 19.3 
    ##  6 north baltimore/gui…         0.512                                  3.48
    ##  7 beechfield/ten hill…         0.492                                 10.5 
    ##  8 cross-country/chesw…         0.479                                  9.89
    ##  9 lauraville                   0.410                                  7.49
    ## 10 penn north/reservoi…         0.408                                 26.0 
    ## # … with 45 more rows
…
``` r
csa_tree_temp_demographics %>%
  select(csa2010,temp_mean_aft,matches("crime|shootings|gun|assault|narcotics")) %>%
  arrange(desc(temp_mean_aft))
```

    ## # A tibble: 55 x 9
    ##    csa2010 temp_mean_aft part_1_crime_ra… violent_crime_r… property_crime_…
    ##    <chr>           <dbl>            <dbl>            <dbl>            <dbl>
    ##  1 madiso…          98.3            119.              28.7             89.3
    ##  2 patter…          97.4            113.              27.4             83.9
    ##  3 oldtow…          97.3            111.              38.0             71.1
    ##  4 midtown          96.9             80.3             20.8             58.6
    ##  5 greenm…          96.9             86.0             32.9             51.7
    ##  6 clifto…          96.7             67.8             25.1             41.5
    ##  7 midway…          96.4             76.3             26.1             48.1
    ##  8 greate…          96.3             67.2             23.5             43.1
    ##  9 highla…          96.3             98.5             28.1             69.8
    ## 10 upton/…          95.9             84.2             30.9             51.7
    ## # … with 45 more rows, and 4 more variables:
    ## #   number_of_shootings_per_1_000_residents <dbl>,
    ## #   number_of_gun_related_homicides_per_1_000_residents <dbl>,
    ## #   number_of_common_assault_calls_for_service_per_1_000_residents <dbl>,
    ## #   number_of_narcotics_calls_for_service_per_1_000_residents <dbl>
…
The GeoID 245100803011000 can be broken down into: State: 24, for
Maryland County: 510, for Baltimore Tract: 080301 Block: 1000

#### Supporting Code

``` r
blocks_tree_temp_demographics %>%
  filter(`15_lid_mean` == 0) %>%
  filter(population_2010 >0) %>%
  filter(aland10 > 0) %>%
  select(geoid10, population_2010, `15_lid_mean`)
```

    ## # A tibble: 86 x 3
    ##    geoid10 population_2010 `15_lid_mean`
    ##      <dbl>           <dbl>         <dbl>
    ##  1 2.45e14               8             0
    ##  2 2.45e14              31             0
    ##  3 2.45e14              37             0
    ##  4 2.45e14              21             0
    ##  5 2.45e14               8             0
    ##  6 2.45e14              18             0
    ##  7 2.45e14             228             0
    ##  8 2.45e14               3             0
    ##  9 2.45e14              20             0
    ## 10 2.45e14               2             0
    ## # … with 76 more rows
…
There is a xxx correlation between temperature and poverty.

#### Supporting Code

``` r
#### Data used ####
csa_tree_temp_demographics %>%
  select(matches("csa2010"), matches("temp_mean_aft"),
         perc_below_poverty = matches("percent_of_family_households_living_below_the_poverty_line")) %>%
  arrange(desc(temp_mean_aft))
```

    ## # A tibble: 55 x 3
    ##    csa2010                         temp_mean_aft perc_below_poverty
    ##    <chr>                                   <dbl>              <dbl>
    ##  1 madison/east end                         98.3              33.7 
    ##  2 patterson park north & east              97.4              21.7 
    ##  3 oldtown/middle east                      97.3              40.1 
    ##  4 midtown                                  96.9               5.42
    ##  5 greenmount east                          96.9              24.2 
    ##  6 clifton-berea                            96.7              27.6 
    ##  7 midway/coldstream                        96.4              22.6 
    ##  8 greater charles village/barclay          96.3              19.0 
    ##  9 highlandtown                             96.3               6.65
    ## 10 upton/druid heights                      95.9              43.0 
    ## # … with 45 more rows
…
There is a 0.4 correlation between temperature and crime.

#### Supporting Code

``` r
#### Data used ####
csa_tree_temp_demographics %>%
  select(matches("csa2010"), matches("temp_mean_aft"),
         matches("violent_crime_rate_per_1_000_residents")) %>%
  arrange(desc(temp_mean_aft))
```

    ## # A tibble: 55 x 3
    ##    csa2010                   temp_mean_aft violent_crime_rate_per_1_000_re…
    ##    <chr>                             <dbl>                            <dbl>
    ##  1 madison/east end                   98.3                             28.7
    ##  2 patterson park north & e…          97.4                             27.4
    ##  3 oldtown/middle east                97.3                             38.0
    ##  4 midtown                            96.9                             20.8
    ##  5 greenmount east                    96.9                             32.9
    ##  6 clifton-berea                      96.7                             25.1
    ##  7 midway/coldstream                  96.4                             26.1
    ##  8 greater charles village/…          96.3                             23.5
    ##  9 highlandtown                       96.3                             28.1
    ## 10 upton/druid heights                95.9                             30.9
    ## # … with 45 more rows
…
There is a 0.58 correlation between temperature and life expectancy.

#### Supporting Code

``` r
#### Data used ####
csa_tree_temp_demographics %>%
  select(matches("csa2010"), matches("temp_mean_aft"),
         matches("life_expectancy")) %>%
  arrange(desc(temp_mean_aft))
```

    ## # A tibble: 55 x 3
    ##    csa2010                         temp_mean_aft life_expectancy
    ##    <chr>                                   <dbl>           <dbl>
    ##  1 madison/east end                         98.3            68.7
    ##  2 patterson park north & east              97.4            72.3
    ##  3 oldtown/middle east                      97.3            69.4
    ##  4 midtown                                  96.9            76.3
    ##  5 greenmount east                          96.9            67.4
    ##  6 clifton-berea                            96.7            67.6
    ##  7 midway/coldstream                        96.4            67.6
    ##  8 greater charles village/barclay          96.3            74  
    ##  9 highlandtown                             96.3            75.2
    ## 10 upton/druid heights                      95.9            68.1
    ## # … with 45 more rows
…
There is a -0.41 correlation between temperature and unemployment rate.

#### Supporting Code

``` r
#### Data used ####
csa_tree_temp_demographics %>%
  select(matches("csa2010"), matches("temp_mean_aft"),
         matches("unemployment_rate")) %>%
  arrange(desc(temp_mean_aft))
```

    ## # A tibble: 55 x 3
    ##    csa2010                         temp_mean_aft unemployment_rate
    ##    <chr>                                   <dbl>             <dbl>
    ##  1 madison/east end                         98.3             21.9 
    ##  2 patterson park north & east              97.4              5.85
    ##  3 oldtown/middle east                      97.3             14.2 
    ##  4 midtown                                  96.9              5.89
    ##  5 greenmount east                          96.9             23.1 
    ##  6 clifton-berea                            96.7             18.0 
    ##  7 midway/coldstream                        96.4             25.7 
    ##  8 greater charles village/barclay          96.3              8.24
    ##  9 highlandtown                             96.3              4.44
    ## 10 upton/druid heights                      95.9             12.5 
    ## # … with 45 more rows
…
    ## # A tibble: 1 x 2
    ##   variable                                                  temp_median_aft
    ##   <chr>                                                               <dbl>
    ## 1 percent_of_family_households_living_below_the_poverty_li…           0.378

``` r
csa_tree_temp_demographics %>%
  select(csa2010,temp_median_aft,percent_of_family_households_living_below_the_poverty_line) %>%
  arrange(desc(temp_median_aft))
```

    ## # A tibble: 55 x 3
    ##    csa2010             temp_median_aft percent_of_family_households_living…
    ##    <chr>                         <dbl>                                <dbl>
    ##  1 madison/east end               98.4                                33.7 
    ##  2 oldtown/middle east            97.5                                40.1 
    ##  3 patterson park nor…            97.2                                21.7 
    ##  4 midtown                        97.1                                 5.42
    ##  5 greenmount east                97.0                                24.2 
    ##  6 clifton-berea                  96.9                                27.6 
    ##  7 greater charles vi…            96.8                                19.0 
    ##  8 midway/coldstream              96.4                                22.6 
    ##  9 highlandtown                   96.3                                 6.65
    ## 10 upton/druid heights            95.9                                43.0 
    ## # … with 45 more rows
…
