…
### Blocks by temperature 

The following arranges and ranks blocks across the city by temperature in the afternoon of August 29, 2018:


```r
blocks_tree_temp_demographics %>%
  select(geoid10, temp_mean_aft) %>%
  mutate(rank = rank(-temp_mean_aft)) %>%
  arrange(rank)
```

```
## # A tibble: 13,598 x 3
##    geoid10         temp_mean_aft  rank
##    <chr>                   <dbl> <dbl>
##  1 245100602005002          101.     1
##  2 245100602004000          101.     2
##  3 245100602005001          100.     3
##  4 245100602004001          100.     4
##  5 245100702004006          100.     5
##  6 245100702004005          100.     6
##  7 245100702004002          100.     7
##  8 245100603001013          100.     8
##  9 245100401002000          100.     9
## 10 245100702004007          100.    10
## # … with 13,588 more rows
```
…
The following arranges and ranks NSAs across the city by temperature in the afternoon of August 29, 2018.

First, we can see that all of the top 10 hottest NSAs are located in the south of the city, and many are in the south-east.


```r
# Top 10 hottest neighborhoods
nsa_tree_temp %>%
  select(nsa_name, temp_mean_aft) %>%
  mutate(rank = rank(-temp_mean_aft)) %>%
  arrange(rank)
```

```
## # A tibble: 278 x 3
##    nsa_name              temp_mean_aft  rank
##    <chr>                         <dbl> <dbl>
##  1 mcelderry park                 99.4     1
##  2 milton-montford                99.3     2
##  3 patterson place                98.6     3
##  4 dunbar-broadway                98.3     4
##  5 ellwood park/monument          98.3     5
##  6 penn-fallsway                  98.3     6
##  7 pleasant view gardens          98.3     7
##  8 madison-eastend                97.9     8
##  9 old goucher                    97.9     9
## 10 biddle street                  97.9    10
## # … with 268 more rows
```

Looking at the 10 coolest NSAs, we see it is generally true that they are located far to the west and north, on the outskirts of Baltimore.


```r
# Top 10 coolest neighborhoods
nsa_tree_temp %>%
  select(nsa_name, temp_mean_aft) %>%
  mutate(rank = rank(-temp_mean_aft)) %>%
  arrange(desc(rank))
```

```
## # A tibble: 278 x 3
##    nsa_name                 temp_mean_aft  rank
##    <chr>                            <dbl> <dbl>
##  1 gwynns falls/leakin park          90.7   278
##  2 dickeyville                       91.0   277
##  3 fairmont                          91.1   276
##  4 purnell                           91.2   275
##  5 wakefield                         91.4   274
##  6 mount washington                  92.4   273
##  7 ten hills                         92.4   272
##  8 franklintown                      92.4   271
##  9 west forest park                  92.6   270
## 10 windsor hills                     92.7   269
## # … with 268 more rows
```
…
